<?xml version="1.0" encoding="UTF-8"?>
<svg xmlns="http://www.w3.org/2000/svg" xmlns:xlink="http://www.w3.org/1999/xlink" width="150px" height="150px" viewBox="0 0 150 150" version="1.1">
<g id="surface1">
<path style=" stroke:none;fill-rule:nonzero;fill:rgb(98.039216%,82.352941%,30.196078%);fill-opacity:1;" d="M 150 75 C 150 116.421875 116.421875 150 75 150 C 33.578125 150 0 116.421875 0 75 C 0 33.578125 33.578125 0 75 0 C 116.421875 0 150 33.578125 150 75 Z M 150 75 "/>
<path style=" stroke:none;fill-rule:nonzero;fill:rgb(40%,40%,40%);fill-opacity:1;" d="M 14.460938 34.578125 L 123.011719 34.578125 C 126.578125 34.578125 129.496094 37.496094 129.496094 41.0625 L 129.496094 107.933594 L 7.976562 107.933594 L 7.976562 41.0625 C 7.976562 37.496094 10.894531 34.578125 14.460938 34.578125 Z M 14.460938 34.578125 "/>
<path style=" stroke:none;fill-rule:nonzero;fill:rgb(100%,100%,100%);fill-opacity:1;" d="M 12.378906 103.527344 L 125.09375 103.527344 L 125.09375 41.0625 C 125.09375 39.925781 124.148438 38.980469 123.011719 38.980469 L 14.460938 38.980469 C 13.324219 38.980469 12.378906 39.925781 12.378906 41.0625 Z M 12.378906 103.527344 "/>
<path style=" stroke:none;fill-rule:nonzero;fill:rgb(92.54902%,94.117647%,94.509804%);fill-opacity:1;" d="M 14.710938 47.894531 L 122.761719 47.894531 L 122.761719 72.90625 L 14.710938 72.90625 Z M 14.710938 47.894531 "/>
<path style=" stroke:none;fill-rule:nonzero;fill:rgb(71.372549%,71.372549%,72.156863%);fill-opacity:1;" d="M 2.074219 107.933594 L 135.398438 107.933594 L 135.398438 111.675781 C 135.398438 113.734375 133.714844 115.421875 131.652344 115.421875 L 5.820312 115.421875 C 3.757812 115.421875 2.074219 113.734375 2.074219 111.675781 Z M 2.074219 107.933594 "/>
<path style=" stroke:none;fill-rule:nonzero;fill:rgb(56.862745%,56.862745%,56.862745%);fill-opacity:1;" d="M 55.429688 109.300781 L 82.042969 109.300781 L 79.191406 111.195312 L 58.28125 111.195312 Z M 55.429688 109.300781 "/>
<path style=" stroke:none;fill-rule:nonzero;fill:rgb(40%,40%,40%);fill-opacity:1;" d="M 97.011719 58.125 L 136.882812 58.125 C 138.148438 58.125 139.171875 59.148438 139.171875 60.414062 L 139.171875 113.132812 C 139.171875 114.394531 138.148438 115.421875 136.882812 115.421875 L 97.011719 115.421875 C 95.746094 115.421875 94.722656 114.394531 94.722656 113.132812 L 94.722656 60.414062 C 94.722656 59.148438 95.746094 58.125 97.011719 58.125 Z M 97.011719 58.125 "/>
<path style=" stroke:none;fill-rule:nonzero;fill:rgb(100%,100%,100%);fill-opacity:1;" d="M 97.503906 62.179688 L 136.390625 62.179688 C 136.535156 62.179688 136.65625 62.296875 136.65625 62.445312 L 136.65625 109.792969 C 136.65625 109.9375 136.535156 110.058594 136.390625 110.058594 L 97.503906 110.058594 C 97.359375 110.058594 97.238281 109.9375 97.238281 109.792969 L 97.238281 62.445312 C 97.238281 62.296875 97.359375 62.179688 97.503906 62.179688 Z M 97.503906 62.179688 "/>
<path style=" stroke:none;fill-rule:nonzero;fill:rgb(71.372549%,71.372549%,72.156863%);fill-opacity:1;" d="M 118.441406 112.644531 C 118.441406 113.46875 117.773438 114.136719 116.949219 114.136719 C 116.121094 114.136719 115.453125 113.46875 115.453125 112.644531 C 115.453125 111.820312 116.121094 111.148438 116.949219 111.148438 C 117.773438 111.148438 118.441406 111.820312 118.441406 112.644531 Z M 118.441406 112.644531 "/>
<path style=" stroke:none;fill-rule:nonzero;fill:rgb(92.54902%,94.117647%,94.509804%);fill-opacity:1;" d="M 99.3125 68.109375 L 134.582031 68.109375 L 134.582031 88.894531 L 99.3125 88.894531 Z M 99.3125 68.109375 "/>
<path style=" stroke:none;fill-rule:nonzero;fill:rgb(40%,40%,40%);fill-opacity:1;" d="M 128.292969 78.632812 L 146.765625 78.632812 C 147.40625 78.632812 147.925781 79.152344 147.925781 79.792969 L 147.925781 114.257812 C 147.925781 114.902344 147.40625 115.421875 146.765625 115.421875 L 128.292969 115.421875 C 127.648438 115.421875 127.128906 114.902344 127.128906 114.257812 L 127.128906 79.792969 C 127.128906 79.152344 127.648438 78.632812 128.292969 78.632812 Z M 128.292969 78.632812 "/>
<path style=" stroke:none;fill-rule:nonzero;fill:rgb(100%,100%,100%);fill-opacity:1;" d="M 129.15625 82.074219 L 145.898438 82.074219 C 145.960938 82.074219 146.011719 82.125 146.011719 82.191406 L 146.011719 111.863281 C 146.011719 111.925781 145.960938 111.976562 145.898438 111.976562 L 129.15625 111.976562 C 129.09375 111.976562 129.042969 111.925781 129.042969 111.863281 L 129.042969 82.191406 C 129.042969 82.125 129.09375 82.074219 129.15625 82.074219 Z M 129.15625 82.074219 "/>
<path style=" stroke:none;fill-rule:nonzero;fill:rgb(71.372549%,71.372549%,72.156863%);fill-opacity:1;" d="M 138.578125 113.542969 C 138.578125 114.125 138.109375 114.59375 137.527344 114.59375 C 136.949219 114.59375 136.480469 114.125 136.480469 113.542969 C 136.480469 112.964844 136.949219 112.492188 137.527344 112.492188 C 138.109375 112.492188 138.578125 112.964844 138.578125 113.542969 Z M 138.578125 113.542969 "/>
<path style=" stroke:none;fill-rule:nonzero;fill:rgb(71.372549%,71.372549%,72.156863%);fill-opacity:1;" d="M 134.71875 80.527344 L 140.335938 80.527344 C 140.480469 80.527344 140.59375 80.644531 140.59375 80.785156 C 140.59375 80.925781 140.480469 81.042969 140.335938 81.042969 L 134.71875 81.042969 C 134.574219 81.042969 134.460938 80.925781 134.460938 80.785156 C 134.460938 80.644531 134.574219 80.527344 134.71875 80.527344 Z M 134.71875 80.527344 "/>
<path style=" stroke:none;fill-rule:nonzero;fill:rgb(12.941176%,81.568627%,76.470588%);fill-opacity:1;" d="M 125.09375 45.945312 L 12.378906 45.945312 L 12.378906 41.0625 C 12.378906 39.925781 13.324219 38.980469 14.460938 38.980469 L 123.011719 38.980469 C 124.148438 38.980469 125.09375 39.925781 125.09375 41.0625 Z M 125.09375 45.945312 "/>
<path style=" stroke:none;fill-rule:nonzero;fill:rgb(100%,100%,100%);fill-opacity:1;" d="M 60.480469 40.976562 L 118.21875 40.976562 C 118.644531 40.976562 118.992188 41.324219 118.992188 41.746094 L 118.992188 43.179688 C 118.992188 43.605469 118.644531 43.953125 118.21875 43.953125 L 60.480469 43.953125 C 60.054688 43.953125 59.707031 43.605469 59.707031 43.179688 L 59.707031 41.746094 C 59.707031 41.324219 60.054688 40.976562 60.480469 40.976562 Z M 60.480469 40.976562 "/>
<path style=" stroke:none;fill-rule:nonzero;fill:rgb(92.54902%,94.117647%,94.509804%);fill-opacity:1;" d="M 17.175781 40.921875 C 18.140625 40.921875 18.921875 41.703125 18.921875 42.667969 C 18.921875 43.632812 18.140625 44.414062 17.175781 44.414062 C 16.210938 44.414062 15.425781 43.632812 15.425781 42.667969 C 15.425781 41.703125 16.210938 40.921875 17.175781 40.921875 Z M 17.175781 40.921875 "/>
<path style=" stroke:none;fill-rule:nonzero;fill:rgb(92.54902%,94.117647%,94.509804%);fill-opacity:1;" d="M 24.070312 40.921875 C 25.035156 40.921875 25.816406 41.703125 25.816406 42.667969 C 25.816406 43.632812 25.035156 44.414062 24.070312 44.414062 C 23.105469 44.414062 22.324219 43.632812 22.324219 42.667969 C 22.324219 41.703125 23.105469 40.921875 24.070312 40.921875 Z M 24.070312 40.921875 "/>
<path style=" stroke:none;fill-rule:nonzero;fill:rgb(92.54902%,94.117647%,94.509804%);fill-opacity:1;" d="M 30.96875 40.921875 C 31.933594 40.921875 32.714844 41.703125 32.714844 42.667969 C 32.714844 43.632812 31.933594 44.414062 30.96875 44.414062 C 30 44.414062 29.21875 43.632812 29.21875 42.667969 C 29.21875 41.703125 30 40.921875 30.96875 40.921875 Z M 30.96875 40.921875 "/>
<path style=" stroke:none;fill-rule:nonzero;fill:rgb(100%,35.686275%,38.431373%);fill-opacity:1;" d="M 26.703125 78.9375 C 29.488281 78.9375 31.746094 81.195312 31.746094 83.980469 C 31.746094 86.761719 29.488281 89.019531 26.703125 89.019531 C 23.921875 89.019531 21.664062 86.761719 21.664062 83.980469 C 21.664062 81.195312 23.921875 78.9375 26.703125 78.9375 Z M 26.703125 78.9375 "/>
<path style=" stroke:none;fill-rule:nonzero;fill:rgb(12.941176%,81.568627%,76.470588%);fill-opacity:1;" d="M 52.742188 78.9375 C 55.527344 78.9375 57.78125 81.195312 57.78125 83.980469 C 57.78125 86.761719 55.527344 89.019531 52.742188 89.019531 C 49.960938 89.019531 47.703125 86.761719 47.703125 83.980469 C 47.703125 81.195312 49.960938 78.9375 52.742188 78.9375 Z M 52.742188 78.9375 "/>
<path style=" stroke:none;fill-rule:nonzero;fill:rgb(86.27451%,89.019608%,85.882353%);fill-opacity:1;" d="M 19.472656 91.179688 L 33.9375 91.179688 L 33.9375 91.964844 L 19.472656 91.964844 Z M 19.472656 96.113281 L 29.1875 96.113281 L 29.1875 96.894531 L 19.472656 96.894531 Z M 19.472656 93.648438 L 33.9375 93.648438 L 33.9375 94.429688 L 19.472656 94.429688 Z M 19.472656 93.648438 "/>
<path style=" stroke:none;fill-rule:nonzero;fill:rgb(86.27451%,89.019608%,85.882353%);fill-opacity:1;" d="M 45.511719 91.179688 L 59.976562 91.179688 L 59.976562 91.964844 L 45.511719 91.964844 Z M 45.511719 96.113281 L 55.226562 96.113281 L 55.226562 96.894531 L 45.511719 96.894531 Z M 45.511719 93.648438 L 59.976562 93.648438 L 59.976562 94.429688 L 45.511719 94.429688 Z M 45.511719 93.648438 "/>
<path style=" stroke:none;fill-rule:nonzero;fill:rgb(98.039216%,82.352941%,30.196078%);fill-opacity:1;" d="M 80.382812 78.9375 C 83.167969 78.9375 85.421875 81.195312 85.421875 83.980469 C 85.421875 86.761719 83.167969 89.019531 80.382812 89.019531 C 77.601562 89.019531 75.34375 86.761719 75.34375 83.980469 C 75.34375 81.195312 77.601562 78.9375 80.382812 78.9375 Z M 80.382812 78.9375 "/>
<path style=" stroke:none;fill-rule:nonzero;fill:rgb(86.27451%,89.019608%,85.882353%);fill-opacity:1;" d="M 73.152344 91.179688 L 87.617188 91.179688 L 87.617188 91.964844 L 73.152344 91.964844 Z M 73.152344 96.113281 L 82.867188 96.113281 L 82.867188 96.894531 L 73.152344 96.894531 Z M 73.152344 93.648438 L 87.617188 93.648438 L 87.617188 94.429688 L 73.152344 94.429688 Z M 73.152344 93.648438 "/>
<path style=" stroke:none;fill-rule:nonzero;fill:rgb(100%,35.686275%,38.431373%);fill-opacity:1;" d="M 106.335938 91.890625 C 108.066406 91.890625 109.464844 93.292969 109.464844 95.019531 C 109.464844 96.746094 108.066406 98.148438 106.335938 98.148438 C 104.609375 98.148438 103.210938 96.746094 103.210938 95.019531 C 103.210938 93.292969 104.609375 91.890625 106.335938 91.890625 Z M 106.335938 91.890625 "/>
<path style=" stroke:none;fill-rule:nonzero;fill:rgb(86.27451%,89.019608%,85.882353%);fill-opacity:1;" d="M 101.847656 99.488281 L 110.824219 99.488281 L 110.824219 100.125 L 101.847656 100.125 Z M 101.847656 103.476562 L 107.878906 103.476562 L 107.878906 104.113281 L 101.847656 104.113281 Z M 101.847656 101.484375 L 110.824219 101.484375 L 110.824219 102.117188 L 101.847656 102.117188 Z M 101.847656 101.484375 "/>
<path style=" stroke:none;fill-rule:nonzero;fill:rgb(12.941176%,81.568627%,76.470588%);fill-opacity:1;" d="M 118.546875 91.890625 C 120.273438 91.890625 121.675781 93.292969 121.675781 95.019531 C 121.675781 96.746094 120.273438 98.148438 118.546875 98.148438 C 116.820312 98.148438 115.417969 96.746094 115.417969 95.019531 C 115.417969 93.292969 116.820312 91.890625 118.546875 91.890625 Z M 118.546875 91.890625 "/>
<path style=" stroke:none;fill-rule:nonzero;fill:rgb(86.27451%,89.019608%,85.882353%);fill-opacity:1;" d="M 114.058594 99.488281 L 123.035156 99.488281 L 123.035156 100.125 L 114.058594 100.125 Z M 114.058594 103.476562 L 120.089844 103.476562 L 120.089844 104.113281 L 114.058594 104.113281 Z M 114.058594 101.484375 L 123.035156 101.484375 L 123.035156 102.117188 L 114.058594 102.117188 Z M 114.058594 101.484375 "/>
<path style=" stroke:none;fill-rule:nonzero;fill:rgb(12.941176%,81.568627%,76.470588%);fill-opacity:1;" d="M 136.65625 66.734375 L 97.238281 66.734375 L 97.238281 62.445312 C 97.238281 62.296875 97.355469 62.179688 97.503906 62.179688 L 136.386719 62.179688 C 136.535156 62.179688 136.652344 62.296875 136.652344 62.445312 L 136.652344 66.734375 Z M 136.65625 66.734375 "/>
<path style=" stroke:none;fill-rule:nonzero;fill:rgb(92.54902%,94.117647%,94.509804%);fill-opacity:1;" d="M 100.160156 63.476562 C 100.726562 63.476562 101.1875 63.933594 101.1875 64.5 C 101.1875 65.066406 100.726562 65.523438 100.160156 65.523438 C 99.59375 65.523438 99.132812 65.066406 99.132812 64.5 C 99.132812 63.933594 99.59375 63.476562 100.160156 63.476562 Z M 100.160156 63.476562 "/>
<path style=" stroke:none;fill-rule:nonzero;fill:rgb(92.54902%,94.117647%,94.509804%);fill-opacity:1;" d="M 103.046875 63.476562 C 103.613281 63.476562 104.070312 63.933594 104.070312 64.5 C 104.070312 65.066406 103.613281 65.523438 103.046875 65.523438 C 102.480469 65.523438 102.019531 65.066406 102.019531 64.5 C 102.019531 63.933594 102.480469 63.476562 103.046875 63.476562 Z M 103.046875 63.476562 "/>
<path style=" stroke:none;fill-rule:nonzero;fill:rgb(92.54902%,94.117647%,94.509804%);fill-opacity:1;" d="M 105.933594 63.476562 C 106.5 63.476562 106.957031 63.933594 106.957031 64.5 C 106.957031 65.066406 106.5 65.523438 105.933594 65.523438 C 105.367188 65.523438 104.90625 65.066406 104.90625 64.5 C 104.90625 63.933594 105.367188 63.476562 105.933594 63.476562 Z M 105.933594 63.476562 "/>
<path style=" stroke:none;fill-rule:nonzero;fill:rgb(100%,100%,100%);fill-opacity:1;" d="M 111.6875 63.703125 L 135.125 63.703125 C 135.300781 63.703125 135.441406 63.890625 135.441406 64.117188 L 135.441406 64.882812 C 135.441406 65.113281 135.300781 65.296875 135.125 65.296875 L 111.6875 65.296875 C 111.511719 65.296875 111.371094 65.113281 111.371094 64.882812 L 111.371094 64.117188 C 111.371094 63.890625 111.511719 63.703125 111.6875 63.703125 Z M 111.6875 63.703125 "/>
<path style=" stroke:none;fill-rule:nonzero;fill:rgb(12.941176%,81.568627%,76.470588%);fill-opacity:1;" d="M 146.011719 84.066406 L 129.042969 84.066406 L 129.042969 82.191406 C 129.042969 82.125 129.09375 82.074219 129.15625 82.074219 L 145.898438 82.074219 C 145.960938 82.074219 146.011719 82.125 146.011719 82.191406 Z M 146.011719 84.066406 "/>
<path style=" stroke:none;fill-rule:nonzero;fill:rgb(100%,100%,100%);fill-opacity:1;" d="M 130.242188 82.414062 C 130.566406 82.414062 130.828125 82.675781 130.828125 83 C 130.828125 83.320312 130.566406 83.585938 130.242188 83.585938 C 129.917969 83.585938 129.65625 83.320312 129.65625 83 C 129.65625 82.675781 129.917969 82.414062 130.242188 82.414062 Z M 130.242188 82.414062 "/>
<path style=" stroke:none;fill-rule:nonzero;fill:rgb(92.54902%,94.117647%,94.509804%);fill-opacity:1;" d="M 131.890625 82.414062 C 132.214844 82.414062 132.476562 82.675781 132.476562 83 C 132.476562 83.320312 132.214844 83.585938 131.890625 83.585938 C 131.566406 83.585938 131.304688 83.320312 131.304688 83 C 131.304688 82.675781 131.566406 82.414062 131.890625 82.414062 Z M 131.890625 82.414062 "/>
<path style=" stroke:none;fill-rule:nonzero;fill:rgb(92.54902%,94.117647%,94.509804%);fill-opacity:1;" d="M 133.539062 82.414062 C 133.867188 82.414062 134.128906 82.675781 134.128906 83 C 134.128906 83.320312 133.867188 83.585938 133.539062 83.585938 C 133.21875 83.585938 132.953125 83.320312 132.953125 83 C 132.953125 82.675781 133.21875 82.414062 133.539062 82.414062 Z M 133.539062 82.414062 "/>
<path style=" stroke:none;fill-rule:nonzero;fill:rgb(100%,100%,100%);fill-opacity:1;" d="M 135.925781 82.488281 L 145.359375 82.488281 C 145.488281 82.488281 145.589844 82.589844 145.589844 82.71875 L 145.589844 83.332031 C 145.589844 83.457031 145.484375 83.558594 145.359375 83.558594 L 135.925781 83.558594 C 135.796875 83.558594 135.695312 83.457031 135.695312 83.332031 L 135.695312 82.71875 C 135.695312 82.589844 135.796875 82.488281 135.925781 82.488281 Z M 135.925781 82.488281 "/>
<path style=" stroke:none;fill-rule:nonzero;fill:rgb(92.54902%,94.117647%,94.509804%);fill-opacity:1;" d="M 129.867188 84.707031 L 145.191406 84.707031 L 145.191406 93.742188 L 129.867188 93.742188 Z M 129.867188 84.707031 "/>
<path style=" stroke:none;fill-rule:nonzero;fill:rgb(98.039216%,82.352941%,30.196078%);fill-opacity:1;" d="M 137.976562 95.59375 C 139.550781 95.59375 140.820312 96.867188 140.820312 98.4375 C 140.820312 100.007812 139.550781 101.28125 137.976562 101.28125 C 136.40625 101.28125 135.132812 100.007812 135.132812 98.4375 C 135.132812 96.867188 136.40625 95.59375 137.976562 95.59375 Z M 137.976562 95.59375 "/>
<path style=" stroke:none;fill-rule:nonzero;fill:rgb(86.27451%,89.019608%,85.882353%);fill-opacity:1;" d="M 133.042969 103.351562 L 142.914062 103.351562 L 142.914062 104.050781 L 133.042969 104.050781 Z M 133.042969 107.742188 L 139.675781 107.742188 L 139.675781 108.4375 L 133.042969 108.4375 Z M 133.042969 105.546875 L 142.914062 105.546875 L 142.914062 106.246094 L 133.042969 106.246094 Z M 133.042969 105.546875 "/>
<path style=" stroke:none;fill-rule:nonzero;fill:rgb(92.941176%,72.54902%,21.568627%);fill-opacity:1;" d="M 11.8125 115.421875 L 138.1875 115.421875 C 137.769531 116.074219 137.335938 116.71875 136.898438 117.355469 L 13.101562 117.355469 C 12.664062 116.71875 12.230469 116.074219 11.8125 115.421875 Z M 11.8125 115.421875 "/>
<path style=" stroke:none;fill-rule:nonzero;fill:rgb(71.372549%,71.372549%,72.156863%);fill-opacity:1;" d="M 111.960938 59.753906 L 121.933594 59.753906 C 122.074219 59.753906 122.1875 59.867188 122.1875 60.007812 L 122.1875 60.011719 C 122.1875 60.152344 122.074219 60.265625 121.933594 60.265625 L 111.960938 60.265625 C 111.820312 60.265625 111.707031 60.152344 111.707031 60.011719 L 111.707031 60.007812 C 111.707031 59.867188 111.820312 59.753906 111.960938 59.753906 Z M 111.960938 59.753906 "/>
</g>
</svg>
